127.0.0.1 - - [13/Jan/2015:05:43:30 -0800] "GET / HTTP/1.1" 404 951
0:0:0:0:0:0:0:1 - - [13/Jan/2015:05:43:36 -0800] "GET /KYG/ HTTP/1.1" 200 877
0:0:0:0:0:0:0:1 - - [13/Jan/2015:05:43:48 -0800] "GET /KYG/ HTTP/1.1" 200 877
0:0:0:0:0:0:0:1 - - [13/Jan/2015:05:43:49 -0800] "GET /favicon.ico HTTP/1.1" 404 973
0:0:0:0:0:0:0:1 - - [13/Jan/2015:05:43:52 -0800] "GET /KYG/UserSignIn.jsp HTTP/1.1" 200 1300
0:0:0:0:0:0:0:1 - - [13/Jan/2015:05:43:56 -0800] "POST /KYG/CategoryServlet HTTP/1.1" 302 -
0:0:0:0:0:0:0:1 - - [13/Jan/2015:05:43:56 -0800] "GET /KYG/index.jsp HTTP/1.1" 200 748
0:0:0:0:0:0:0:1 - - [13/Jan/2015:05:44:00 -0800] "GET /KYG/UserSignIn.jsp HTTP/1.1" 200 1300
0:0:0:0:0:0:0:1 - - [13/Jan/2015:05:44:03 -0800] "POST /KYG/CategoryServlet HTTP/1.1" 302 -
0:0:0:0:0:0:0:1 - - [13/Jan/2015:05:44:03 -0800] "GET /KYG/index.jsp HTTP/1.1" 200 748
0:0:0:0:0:0:0:1 - - [13/Jan/2015:05:44:06 -0800] "GET /KYG/UserSignIn.jsp HTTP/1.1" 200 1300
0:0:0:0:0:0:0:1 - - [13/Jan/2015:05:44:13 -0800] "GET /KYG/Signup.html HTTP/1.1" 200 2129
0:0:0:0:0:0:0:1 - - [13/Jan/2015:05:44:27 -0800] "POST /KYG/CategoryServlet HTTP/1.1" 302 -
0:0:0:0:0:0:0:1 - - [13/Jan/2015:05:44:27 -0800] "GET /KYG/index.jsp HTTP/1.1" 200 748
0:0:0:0:0:0:0:1 - - [13/Jan/2015:05:44:28 -0800] "GET /KYG/UserSignIn.jsp HTTP/1.1" 200 1300
0:0:0:0:0:0:0:1 - - [13/Jan/2015:05:44:30 -0800] "GET /KYG/Signup.html HTTP/1.1" 200 2129
0:0:0:0:0:0:0:1 - - [13/Jan/2015:05:46:27 -0800] "POST /KYG/CategoryServlet HTTP/1.1" 302 -
0:0:0:0:0:0:0:1 - - [13/Jan/2015:05:46:27 -0800] "GET /KYG/index.jsp HTTP/1.1" 200 748
0:0:0:0:0:0:0:1 - - [13/Jan/2015:05:46:28 -0800] "GET /KYG/UserSignIn.jsp HTTP/1.1" 200 1300
0:0:0:0:0:0:0:1 - - [13/Jan/2015:05:46:48 -0800] "POST /KYG/SignupServlet HTTP/1.1" 200 -
0:0:0:0:0:0:0:1 - - [13/Jan/2015:05:47:03 -0800] "GET /KYG/SignupServlet HTTP/1.1" 405 1065
0:0:0:0:0:0:0:1 - - [13/Jan/2015:05:47:17 -0800] "POST /KYG/Loginservlet HTTP/1.1" 200 -
0:0:0:0:0:0:0:1 - - [13/Jan/2015:06:17:48 -0800] "GET /KYG/ HTTP/1.1" 200 877
0:0:0:0:0:0:0:1 - - [13/Jan/2015:06:17:55 -0800] "POST /KYG/CategoryServlet HTTP/1.1" 302 -
0:0:0:0:0:0:0:1 - - [13/Jan/2015:06:17:55 -0800] "GET /KYG/index.jsp HTTP/1.1" 200 742
0:0:0:0:0:0:0:1 - - [13/Jan/2015:06:17:56 -0800] "GET /KYG/UserSignIn.jsp HTTP/1.1" 200 1300
0:0:0:0:0:0:0:1 - - [13/Jan/2015:06:18:33 -0800] "POST /KYG/SignupServlet HTTP/1.1" 200 -
0:0:0:0:0:0:0:1 - - [13/Jan/2015:06:20:17 -0800] "GET /KYG/UserSignIn.jsp HTTP/1.1" 200 1300
0:0:0:0:0:0:0:1 - - [13/Jan/2015:06:20:33 -0800] "GET /KYG/UserSignIn.jsp HTTP/1.1" 200 1300
0:0:0:0:0:0:0:1 - - [13/Jan/2015:06:42:58 -0800] "GET /KYG/index.jsp HTTP/1.1" 200 742
0:0:0:0:0:0:0:1 - - [13/Jan/2015:06:42:59 -0800] "GET /KYG/UserSignIn.jsp HTTP/1.1" 200 1300
0:0:0:0:0:0:0:1 - - [13/Jan/2015:06:43:10 -0800] "POST /KYG/Loginservlet HTTP/1.1" 200 -
0:0:0:0:0:0:0:1 - - [13/Jan/2015:06:43:23 -0800] "POST /KYG/Loginservlet HTTP/1.1" 200 -
0:0:0:0:0:0:0:1 - - [13/Jan/2015:06:43:42 -0800] "POST /KYG/Loginservlet HTTP/1.1" 200 -
0:0:0:0:0:0:0:1 - - [13/Jan/2015:07:00:37 -0800] "POST /KYG/Loginservlet HTTP/1.1" 302 -
0:0:0:0:0:0:0:1 - - [13/Jan/2015:07:00:37 -0800] "GET /KYG/Gadget.jsp HTTP/1.1" 200 868
0:0:0:0:0:0:0:1 - - [13/Jan/2015:07:00:46 -0800] "GET /KYG/index.jsp HTTP/1.1" 200 742
0:0:0:0:0:0:0:1 - - [13/Jan/2015:07:00:47 -0800] "GET /KYG/UserSignIn.jsp HTTP/1.1" 200 1300
0:0:0:0:0:0:0:1 - - [13/Jan/2015:07:01:14 -0800] "POST /KYG/SignupServlet HTTP/1.1" 302 -
0:0:0:0:0:0:0:1 - - [13/Jan/2015:07:01:14 -0800] "GET /KYG/UserCreated.html HTTP/1.1" 200 282
0:0:0:0:0:0:0:1 - - [13/Jan/2015:07:01:22 -0800] "GET /KYG/index.jsp HTTP/1.1" 200 742
0:0:0:0:0:0:0:1 - - [13/Jan/2015:07:01:23 -0800] "GET /KYG/UserSignIn.jsp HTTP/1.1" 200 1300
0:0:0:0:0:0:0:1 - - [13/Jan/2015:07:01:30 -0800] "POST /KYG/Loginservlet HTTP/1.1" 302 -
0:0:0:0:0:0:0:1 - - [13/Jan/2015:07:01:30 -0800] "GET /KYG/Gadget.jsp HTTP/1.1" 200 868
0:0:0:0:0:0:0:1 - - [13/Jan/2015:07:01:44 -0800] "GET /KYG/index.jsp HTTP/1.1" 200 742
0:0:0:0:0:0:0:1 - - [13/Jan/2015:07:01:47 -0800] "GET /KYG/UserSignIn.jsp HTTP/1.1" 200 1300
0:0:0:0:0:0:0:1 - - [13/Jan/2015:07:01:57 -0800] "POST /KYG/Loginservlet HTTP/1.1" 302 -
0:0:0:0:0:0:0:1 - - [13/Jan/2015:07:01:57 -0800] "GET /KYG/Gadget.jsp HTTP/1.1" 200 868
0:0:0:0:0:0:0:1 - - [13/Jan/2015:07:02:13 -0800] "GET /KYG/UserSignIn.jsp HTTP/1.1" 200 1300
0:0:0:0:0:0:0:1 - - [13/Jan/2015:07:02:15 -0800] "POST /KYG/Loginservlet HTTP/1.1" 302 -
0:0:0:0:0:0:0:1 - - [13/Jan/2015:07:02:15 -0800] "GET /KYG/Error.html HTTP/1.1" 200 373
0:0:0:0:0:0:0:1 - - [13/Jan/2015:07:02:25 -0800] "POST /KYG/Loginservlet HTTP/1.1" 302 -
0:0:0:0:0:0:0:1 - - [13/Jan/2015:07:02:25 -0800] "GET /KYG/Gadget.jsp HTTP/1.1" 200 868
0:0:0:0:0:0:0:1 - - [13/Jan/2015:07:03:09 -0800] "POST /KYG/Loginservlet HTTP/1.1" 302 -
0:0:0:0:0:0:0:1 - - [13/Jan/2015:07:03:09 -0800] "GET /KYG/Gadget.jsp HTTP/1.1" 200 868
0:0:0:0:0:0:0:1 - - [13/Jan/2015:07:05:11 -0800] "GET /KYG/index.jsp HTTP/1.1" 200 742
0:0:0:0:0:0:0:1 - - [13/Jan/2015:07:05:16 -0800] "GET /KYG/UserSignIn.jsp HTTP/1.1" 200 1300
0:0:0:0:0:0:0:1 - - [13/Jan/2015:07:05:20 -0800] "POST /KYG/Loginservlet HTTP/1.1" 302 -
0:0:0:0:0:0:0:1 - - [13/Jan/2015:07:05:20 -0800] "GET /KYG/Gadget.jsp HTTP/1.1" 200 868
0:0:0:0:0:0:0:1 - - [13/Jan/2015:07:05:57 -0800] "GET /KYG HTTP/1.1" 302 -
0:0:0:0:0:0:0:1 - - [13/Jan/2015:07:05:57 -0800] "GET /KYG/ HTTP/1.1" 200 1116
0:0:0:0:0:0:0:1 - - [13/Jan/2015:07:06:12 -0800] "POST /KYG/CategoryServlet HTTP/1.1" 302 -
0:0:0:0:0:0:0:1 - - [13/Jan/2015:07:06:12 -0800] "GET /KYG/index.jsp HTTP/1.1" 200 742
0:0:0:0:0:0:0:1 - - [13/Jan/2015:07:06:15 -0800] "GET /KYG/UserSignIn.jsp HTTP/1.1" 200 1300
0:0:0:0:0:0:0:1 - - [13/Jan/2015:07:06:18 -0800] "POST /KYG/Loginservlet HTTP/1.1" 302 -
0:0:0:0:0:0:0:1 - - [13/Jan/2015:07:06:18 -0800] "GET /KYG/Gadget.jsp HTTP/1.1" 200 868
0:0:0:0:0:0:0:1 - - [13/Jan/2015:07:06:21 -0800] "GET /KYG/index.jsp HTTP/1.1" 200 742
0:0:0:0:0:0:0:1 - - [13/Jan/2015:07:06:22 -0800] "GET /KYG/UserSignIn.jsp HTTP/1.1" 200 1300
0:0:0:0:0:0:0:1 - - [13/Jan/2015:07:06:24 -0800] "GET /KYG/UserSignIn.jsp HTTP/1.1" 200 1300
0:0:0:0:0:0:0:1 - - [13/Jan/2015:07:07:11 -0800] "GET /KYG/UserSignIn.jsp HTTP/1.1" 200 1300
0:0:0:0:0:0:0:1 - - [13/Jan/2015:07:07:13 -0800] "POST /KYG/Loginservlet HTTP/1.1" 302 -
0:0:0:0:0:0:0:1 - - [13/Jan/2015:07:07:13 -0800] "GET /KYG/Gadget.jsp HTTP/1.1" 200 868
0:0:0:0:0:0:0:1 - - [13/Jan/2015:07:07:15 -0800] "GET /KYG/index.jsp HTTP/1.1" 200 742
0:0:0:0:0:0:0:1 - - [13/Jan/2015:07:07:17 -0800] "GET /KYG/UserSignIn.jsp HTTP/1.1" 200 1300
0:0:0:0:0:0:0:1 - - [13/Jan/2015:07:07:25 -0800] "POST /KYG/Loginservlet HTTP/1.1" 302 -
0:0:0:0:0:0:0:1 - - [13/Jan/2015:07:07:25 -0800] "GET /KYG/Gadget.jsp HTTP/1.1" 200 868
0:0:0:0:0:0:0:1 - - [13/Jan/2015:07:16:49 -0800] "POST /KYG/Loginservlet HTTP/1.1" 302 -
0:0:0:0:0:0:0:1 - - [13/Jan/2015:07:16:49 -0800] "GET /KYG/Gadget.jsp HTTP/1.1" 200 868
0:0:0:0:0:0:0:1 - - [13/Jan/2015:07:16:51 -0800] "GET /KYG/index.jsp HTTP/1.1" 200 742
0:0:0:0:0:0:0:1 - - [13/Jan/2015:07:16:52 -0800] "GET /KYG/UserSignIn.jsp HTTP/1.1" 200 1300
0:0:0:0:0:0:0:1 - - [13/Jan/2015:07:16:53 -0800] "POST /KYG/Loginservlet HTTP/1.1" 302 -
0:0:0:0:0:0:0:1 - - [13/Jan/2015:07:16:53 -0800] "GET /KYG/Gadget.jsp HTTP/1.1" 200 868
0:0:0:0:0:0:0:1 - - [13/Jan/2015:07:16:55 -0800] "GET /KYG/index.jsp HTTP/1.1" 200 742
0:0:0:0:0:0:0:1 - - [13/Jan/2015:07:16:56 -0800] "GET /KYG/UserSignIn.jsp HTTP/1.1" 200 1300
0:0:0:0:0:0:0:1 - - [13/Jan/2015:07:18:05 -0800] "POST /KYG/Loginservlet HTTP/1.1" 302 -
0:0:0:0:0:0:0:1 - - [13/Jan/2015:07:18:05 -0800] "GET /KYG/Gadget.jsp HTTP/1.1" 200 868
0:0:0:0:0:0:0:1 - - [13/Jan/2015:07:23:00 -0800] "GET /KYG/UserSignIn.jsp HTTP/1.1" 200 1300
0:0:0:0:0:0:0:1 - - [13/Jan/2015:07:23:02 -0800] "GET /KYG/UserSignIn.jsp HTTP/1.1" 200 1300
0:0:0:0:0:0:0:1 - - [13/Jan/2015:07:23:11 -0800] "GET /KYG/ HTTP/1.1" 200 1116
0:0:0:0:0:0:0:1 - - [13/Jan/2015:07:23:18 -0800] "GET / HTTP/1.1" 404 951
0:0:0:0:0:0:0:1 - - [13/Jan/2015:07:23:24 -0800] "GET /kyg HTTP/1.1" 404 957
0:0:0:0:0:0:0:1 - - [13/Jan/2015:07:23:31 -0800] "GET /KYG HTTP/1.1" 302 -
0:0:0:0:0:0:0:1 - - [13/Jan/2015:07:23:31 -0800] "GET /KYG/ HTTP/1.1" 200 1116
0:0:0:0:0:0:0:1 - - [13/Jan/2015:07:23:37 -0800] "POST /KYG/CategoryServlet HTTP/1.1" 302 -
0:0:0:0:0:0:0:1 - - [13/Jan/2015:07:23:37 -0800] "GET /KYG/index.jsp HTTP/1.1" 200 742
0:0:0:0:0:0:0:1 - - [13/Jan/2015:07:23:39 -0800] "GET /KYG/UserSignIn.jsp HTTP/1.1" 200 1300
0:0:0:0:0:0:0:1 - - [13/Jan/2015:07:23:40 -0800] "POST /KYG/Loginservlet HTTP/1.1" 302 -
0:0:0:0:0:0:0:1 - - [13/Jan/2015:07:23:40 -0800] "GET /KYG/Gadget.jsp HTTP/1.1" 200 868
0:0:0:0:0:0:0:1 - - [13/Jan/2015:07:23:57 -0800] "POST /KYG/Loginservlet HTTP/1.1" 302 -
0:0:0:0:0:0:0:1 - - [13/Jan/2015:07:23:57 -0800] "GET /KYG/Gadget.jsp HTTP/1.1" 200 868
0:0:0:0:0:0:0:1 - - [13/Jan/2015:07:23:58 -0800] "GET /KYG/index.jsp HTTP/1.1" 200 742
0:0:0:0:0:0:0:1 - - [13/Jan/2015:07:23:59 -0800] "GET /KYG/UserSignIn.jsp HTTP/1.1" 200 1300
0:0:0:0:0:0:0:1 - - [13/Jan/2015:07:24:01 -0800] "POST /KYG/Loginservlet HTTP/1.1" 302 -
0:0:0:0:0:0:0:1 - - [13/Jan/2015:07:24:01 -0800] "GET /KYG/Gadget.jsp HTTP/1.1" 200 868
0:0:0:0:0:0:0:1 - - [13/Jan/2015:07:24:05 -0800] "POST /KYG/Loginservlet HTTP/1.1" 302 -
0:0:0:0:0:0:0:1 - - [13/Jan/2015:07:24:05 -0800] "GET /KYG/Gadget.jsp HTTP/1.1" 200 868
0:0:0:0:0:0:0:1 - - [13/Jan/2015:07:27:02 -0800] "GET /KYG/index.jsp HTTP/1.1" 200 742
0:0:0:0:0:0:0:1 - - [13/Jan/2015:07:27:03 -0800] "GET /KYG/UserSignIn.jsp HTTP/1.1" 200 1300
0:0:0:0:0:0:0:1 - - [13/Jan/2015:07:27:04 -0800] "POST /KYG/Loginservlet HTTP/1.1" 302 -
0:0:0:0:0:0:0:1 - - [13/Jan/2015:07:27:04 -0800] "GET /KYG/Gadget.jsp HTTP/1.1" 200 868
0:0:0:0:0:0:0:1 - - [13/Jan/2015:07:27:10 -0800] "GET /KYG/UserSignIn.jsp HTTP/1.1" 200 1300
0:0:0:0:0:0:0:1 - - [13/Jan/2015:07:27:11 -0800] "POST /KYG/Loginservlet HTTP/1.1" 302 -
0:0:0:0:0:0:0:1 - - [13/Jan/2015:07:27:11 -0800] "GET /KYG/Gadget.jsp HTTP/1.1" 200 868
0:0:0:0:0:0:0:1 - - [13/Jan/2015:07:27:12 -0800] "GET /KYG/index.jsp HTTP/1.1" 200 742
0:0:0:0:0:0:0:1 - - [13/Jan/2015:07:27:16 -0800] "GET /KYG/UserSignIn.jsp HTTP/1.1" 200 1300
0:0:0:0:0:0:0:1 - - [13/Jan/2015:07:27:18 -0800] "POST /KYG/Loginservlet HTTP/1.1" 302 -
0:0:0:0:0:0:0:1 - - [13/Jan/2015:07:27:18 -0800] "GET /KYG/Gadget.jsp HTTP/1.1" 200 868
0:0:0:0:0:0:0:1 - - [13/Jan/2015:07:27:22 -0800] "GET /KYG/index.jsp HTTP/1.1" 200 742
0:0:0:0:0:0:0:1 - - [13/Jan/2015:07:27:24 -0800] "GET /KYG/UserSignIn.jsp HTTP/1.1" 200 1300
0:0:0:0:0:0:0:1 - - [13/Jan/2015:07:27:25 -0800] "POST /KYG/Loginservlet HTTP/1.1" 302 -
0:0:0:0:0:0:0:1 - - [13/Jan/2015:07:27:25 -0800] "GET /KYG/Gadget.jsp HTTP/1.1" 200 868
0:0:0:0:0:0:0:1 - - [13/Jan/2015:07:28:47 -0800] "POST /KYG/Loginservlet HTTP/1.1" 302 -
0:0:0:0:0:0:0:1 - - [13/Jan/2015:07:28:47 -0800] "GET /KYG/Gadget.jsp HTTP/1.1" 200 868
0:0:0:0:0:0:0:1 - - [13/Jan/2015:07:28:49 -0800] "GET /KYG/index.jsp HTTP/1.1" 200 742
0:0:0:0:0:0:0:1 - - [13/Jan/2015:07:28:50 -0800] "GET /KYG/UserSignIn.jsp HTTP/1.1" 200 1300
0:0:0:0:0:0:0:1 - - [13/Jan/2015:07:28:52 -0800] "POST /KYG/Loginservlet HTTP/1.1" 302 -
0:0:0:0:0:0:0:1 - - [13/Jan/2015:07:28:52 -0800] "GET /KYG/Gadget.jsp HTTP/1.1" 200 868
0:0:0:0:0:0:0:1 - - [13/Jan/2015:07:33:52 -0800] "GET /KYG/UserSignIn.jsp HTTP/1.1" 200 1300
127.0.0.1 - - [13/Jan/2015:07:36:03 -0800] "GET / HTTP/1.1" 404 951
0:0:0:0:0:0:0:1 - - [13/Jan/2015:07:36:04 -0800] "GET /KYG/UserSignIn.jsp HTTP/1.1" 200 1300
0:0:0:0:0:0:0:1 - - [13/Jan/2015:07:36:05 -0800] "GET /KYG/UserSignIn.jsp HTTP/1.1" 200 1300
0:0:0:0:0:0:0:1 - - [13/Jan/2015:07:36:06 -0800] "GET /KYG/UserSignIn.jsp HTTP/1.1" 200 1300
0:0:0:0:0:0:0:1 - - [13/Jan/2015:07:36:17 -0800] "GET /KYG/ HTTP/1.1" 200 1116
0:0:0:0:0:0:0:1 - - [13/Jan/2015:07:36:20 -0800] "GET /KYG/UserSignIn.jsp HTTP/1.1" 200 1300
0:0:0:0:0:0:0:1 - - [13/Jan/2015:07:36:29 -0800] "POST /KYG/CategoryServlet HTTP/1.1" 302 -
0:0:0:0:0:0:0:1 - - [13/Jan/2015:07:36:29 -0800] "GET /KYG/index.jsp HTTP/1.1" 200 742
0:0:0:0:0:0:0:1 - - [13/Jan/2015:07:36:33 -0800] "GET /KYG/UserSignIn.jsp HTTP/1.1" 200 1300
0:0:0:0:0:0:0:1 - - [13/Jan/2015:07:36:45 -0800] "POST /KYG/CategoryServlet HTTP/1.1" 302 -
0:0:0:0:0:0:0:1 - - [13/Jan/2015:07:36:45 -0800] "GET /KYG/index.jsp HTTP/1.1" 200 742
0:0:0:0:0:0:0:1 - - [13/Jan/2015:07:37:03 -0800] "GET /KYG/ HTTP/1.1" 200 1116
0:0:0:0:0:0:0:1 - - [13/Jan/2015:07:37:06 -0800] "GET /KYG/UserSignIn.jsp HTTP/1.1" 200 1300
0:0:0:0:0:0:0:1 - - [13/Jan/2015:07:37:22 -0800] "POST /KYG/Loginservlet HTTP/1.1" 302 -
0:0:0:0:0:0:0:1 - - [13/Jan/2015:07:37:22 -0800] "GET /KYG/AdminHome.html HTTP/1.1" 200 329
0:0:0:0:0:0:0:1 - - [13/Jan/2015:07:37:28 -0800] "GET /KYG/ProductCreation.html HTTP/1.1" 200 4223
0:0:0:0:0:0:0:1 - - [13/Jan/2015:07:38:54 -0800] "POST /KYG/ProductCreation HTTP/1.1" 302 -
0:0:0:0:0:0:0:1 - - [13/Jan/2015:07:38:54 -0800] "GET /KYG/ProductStored.html HTTP/1.1" 200 338
0:0:0:0:0:0:0:1 - - [13/Jan/2015:07:39:06 -0800] "POST /KYG/ProductCreation HTTP/1.1" 302 -
0:0:0:0:0:0:0:1 - - [13/Jan/2015:07:39:06 -0800] "GET /KYG/ProductStored.html HTTP/1.1" 304 -
0:0:0:0:0:0:0:1 - - [13/Jan/2015:07:39:08 -0800] "GET /KYG/index.jsp HTTP/1.1" 200 742
0:0:0:0:0:0:0:1 - - [13/Jan/2015:07:39:09 -0800] "GET /KYG/UserSignIn.jsp HTTP/1.1" 200 1300
0:0:0:0:0:0:0:1 - - [13/Jan/2015:07:39:23 -0800] "POST /KYG/Loginservlet HTTP/1.1" 302 -
0:0:0:0:0:0:0:1 - - [13/Jan/2015:07:39:23 -0800] "GET /KYG/Gadget.jsp HTTP/1.1" 200 868
0:0:0:0:0:0:0:1 - - [13/Jan/2015:07:39:28 -0800] "GET /KYG/index.jsp HTTP/1.1" 200 742
0:0:0:0:0:0:0:1 - - [13/Jan/2015:07:39:29 -0800] "GET /KYG/UserSignIn.jsp HTTP/1.1" 200 1300
0:0:0:0:0:0:0:1 - - [13/Jan/2015:07:39:32 -0800] "GET /KYG/UserSignIn.jsp HTTP/1.1" 200 1300
0:0:0:0:0:0:0:1 - - [13/Jan/2015:07:39:33 -0800] "POST /KYG/Loginservlet HTTP/1.1" 302 -
0:0:0:0:0:0:0:1 - - [13/Jan/2015:07:39:33 -0800] "GET /KYG/Gadget.jsp HTTP/1.1" 200 868
0:0:0:0:0:0:0:1 - - [13/Jan/2015:07:39:35 -0800] "GET /KYG/index.jsp HTTP/1.1" 200 742
0:0:0:0:0:0:0:1 - - [13/Jan/2015:07:39:37 -0800] "GET /KYG/UserSignIn.jsp HTTP/1.1" 200 1300
0:0:0:0:0:0:0:1 - - [13/Jan/2015:07:40:05 -0800] "GET /KYG/UserSignIn.jsp HTTP/1.1" 200 1300
0:0:0:0:0:0:0:1 - - [13/Jan/2015:07:40:13 -0800] "POST /KYG/Loginservlet HTTP/1.1" 302 -
0:0:0:0:0:0:0:1 - - [13/Jan/2015:07:40:13 -0800] "GET /KYG/Error.html HTTP/1.1" 304 -
0:0:0:0:0:0:0:1 - - [13/Jan/2015:07:40:29 -0800] "POST /KYG/Loginservlet HTTP/1.1" 302 -
0:0:0:0:0:0:0:1 - - [13/Jan/2015:07:40:29 -0800] "GET /KYG/Gadget.jsp HTTP/1.1" 200 868
0:0:0:0:0:0:0:1 - - [13/Jan/2015:07:40:35 -0800] "POST /KYG/Loginservlet HTTP/1.1" 302 -
0:0:0:0:0:0:0:1 - - [13/Jan/2015:07:40:35 -0800] "GET /KYG/Gadget.jsp HTTP/1.1" 200 868
0:0:0:0:0:0:0:1 - - [13/Jan/2015:07:40:36 -0800] "GET /KYG/index.jsp HTTP/1.1" 200 742
0:0:0:0:0:0:0:1 - - [13/Jan/2015:07:40:39 -0800] "GET /KYG/UserSignIn.jsp HTTP/1.1" 200 1300
0:0:0:0:0:0:0:1 - - [13/Jan/2015:07:41:06 -0800] "GET /KYG/ HTTP/1.1" 200 1194
0:0:0:0:0:0:0:1 - - [13/Jan/2015:07:41:13 -0800] "POST /KYG/CategoryServlet HTTP/1.1" 302 -
0:0:0:0:0:0:0:1 - - [13/Jan/2015:07:41:13 -0800] "GET /KYG/index.jsp HTTP/1.1" 200 2164
0:0:0:0:0:0:0:1 - - [13/Jan/2015:07:41:13 -0800] "GET /KYG/3.png HTTP/1.1" 404 969
0:0:0:0:0:0:0:1 - - [13/Jan/2015:07:41:15 -0800] "GET /KYG/UserSignIn.jsp?Id=12 HTTP/1.1" 200 1300
0:0:0:0:0:0:0:1 - - [13/Jan/2015:07:41:26 -0800] "GET /KYG/index.jsp HTTP/1.1" 200 2164
0:0:0:0:0:0:0:1 - - [13/Jan/2015:07:41:26 -0800] "GET /KYG/3.png HTTP/1.1" 404 969
0:0:0:0:0:0:0:1 - - [13/Jan/2015:07:42:22 -0800] "POST /KYG/SignupServlet HTTP/1.1" 302 -
0:0:0:0:0:0:0:1 - - [13/Jan/2015:07:42:22 -0800] "GET /KYG/UserCreated.html HTTP/1.1" 304 -
0:0:0:0:0:0:0:1 - - [13/Jan/2015:07:42:28 -0800] "GET /KYG/index.jsp HTTP/1.1" 200 2164
0:0:0:0:0:0:0:1 - - [13/Jan/2015:07:42:28 -0800] "GET /KYG/3.png HTTP/1.1" 404 969
0:0:0:0:0:0:0:1 - - [13/Jan/2015:07:42:42 -0800] "POST /KYG/Loginservlet HTTP/1.1" 302 -
0:0:0:0:0:0:0:1 - - [13/Jan/2015:07:42:42 -0800] "GET /KYG/Gadget.jsp HTTP/1.1" 200 2908
0:0:0:0:0:0:0:1 - - [13/Jan/2015:07:42:42 -0800] "GET /KYG/3.png HTTP/1.1" 404 969
0:0:0:0:0:0:0:1 - - [13/Jan/2015:07:43:05 -0800] "GET /KYG/UserSignIn.jsp HTTP/1.1" 200 1300
0:0:0:0:0:0:0:1 - - [13/Jan/2015:07:43:16 -0800] "GET /KYG/UserSignIn.jsp HTTP/1.1" 200 1300
0:0:0:0:0:0:0:1 - - [13/Jan/2015:07:43:21 -0800] "GET /KYG HTTP/1.1" 302 -
0:0:0:0:0:0:0:1 - - [13/Jan/2015:07:43:21 -0800] "GET /KYG/ HTTP/1.1" 200 1194
0:0:0:0:0:0:0:1 - - [13/Jan/2015:07:43:22 -0800] "GET /KYG/UserSignIn.jsp HTTP/1.1" 200 1300
0:0:0:0:0:0:0:1 - - [13/Jan/2015:07:43:41 -0800] "POST /KYG/Loginservlet HTTP/1.1" 302 -
0:0:0:0:0:0:0:1 - - [13/Jan/2015:07:43:41 -0800] "GET /KYG/AdminHome.html HTTP/1.1" 304 -
0:0:0:0:0:0:0:1 - - [13/Jan/2015:07:43:46 -0800] "GET /KYG/SeeCommentsPraposal.jsp HTTP/1.1" 200 1703
0:0:0:0:0:0:0:1 - - [13/Jan/2015:07:43:46 -0800] "GET /KYG/SeeCommentsPraposal.jsp HTTP/1.1" 200 1703
0:0:0:0:0:0:0:1 - - [13/Jan/2015:07:44:09 -0800] "POST /KYG/PraposalServlet HTTP/1.1" 500 1440
