INDEX VERSION 1.3+D:\TheNizamabad\.metadata\.plugins\org.eclipse.wst.jsdt.core\indexes
2953462690.index
1461233064.index
1535881270.index
880345956.index
1373307632.index
2961601768.index
56676339.index
1062526413.index
3399794448.index
1603354377.index
3365973308.index
