127.0.0.1 - - [03/Jan/2015:16:37:48 -0800] "GET / HTTP/1.1" 404 951
0:0:0:0:0:0:0:1 - - [03/Jan/2015:16:37:48 -0800] "GET /HDEWorkflowPOC/ HTTP/1.1" 404 981
0:0:0:0:0:0:0:1 - - [03/Jan/2015:16:38:00 -0800] "GET /HDEWorkflowPOC/ HTTP/1.1" 404 981
0:0:0:0:0:0:0:1 - - [03/Jan/2015:16:38:24 -0800] "GET /HDEWorkflowPOC/ HTTP/1.1" 404 981
0:0:0:0:0:0:0:1 - - [03/Jan/2015:16:38:25 -0800] "GET /HDEWorkflowPOC/ HTTP/1.1" 404 981
0:0:0:0:0:0:0:1 - - [03/Jan/2015:16:38:27 -0800] "GET /HDEWorkflowPOC/ HTTP/1.1" 404 981
0:0:0:0:0:0:0:1 - - [03/Jan/2015:16:38:39 -0800] "GET /HDEWorkflowPOC/ HTTP/1.1" 404 981
